<svg width="166" height="24" viewBox="0 0 166 24" fill="none" xmlns="http://www.w3.org/2000/svg">
<path d="M14.1 19H7V17H14.1C15.15 17 16.0623 16.6667 16.837 16C17.6123 15.3333 18 14.5 18 13.5C18 12.5 17.6123 11.6667 16.837 11C16.0623 10.3333 15.15 10 14.1 10H7.8L10.4 12.6L9 14L4 9L9 4L10.4 5.4L7.8 8H14.1C15.7167 8 17.1043 8.525 18.263 9.575C19.421 10.625 20 11.9333 20 13.5C20 15.0667 19.421 16.375 18.263 17.425C17.1043 18.475 15.7167 19 14.1 19Z" fill="#75839D"/>
<path d="M57 18H60V16H57C55.346 16 54 14.654 54 13C54 11.346 55.346 10 57 10H63V13L68 9L63 5V8H57C54.243 8 52 10.243 52 13C52 15.757 54.243 18 57 18Z" fill="#75839D"/>
<path d="M107 2.83334C101.937 2.83334 97.8333 6.93726 97.8333 12C97.8333 17.0628 101.937 21.1667 107 21.1667C112.063 21.1667 116.167 17.0628 116.167 12C116.167 6.93726 112.063 2.83334 107 2.83334Z" stroke="#262B35" stroke-width="1.5" stroke-linecap="round" stroke-linejoin="round"/>
<path d="M103.333 20.404V13.8334L107 7.41669L110.667 13.8334V20.404" stroke="#262B35" stroke-width="1.5" stroke-linecap="round" stroke-linejoin="round"/>
<path d="M103.333 13.8333C103.333 13.8333 104.366 14.75 105.167 14.75C105.967 14.75 107 13.8333 107 13.8333C107 13.8333 108.033 14.75 108.833 14.75C109.634 14.75 110.667 13.8333 110.667 13.8333" stroke="#262B35" stroke-width="1.5" stroke-linecap="round" stroke-linejoin="round"/>
<path d="M160.9 11.1C161.117 11.1 161.328 11.1788 161.492 11.3217C161.655 11.4647 161.762 11.6621 161.792 11.8776L161.8 12V18.3C161.8 19.1404 161.48 19.9491 160.904 20.5612C160.328 21.1733 159.54 21.5427 158.702 21.594L158.5 21.6H149.5C148.66 21.6 147.851 21.2795 147.239 20.7037C146.627 20.128 146.257 19.3404 146.206 18.5016L146.2 18.3V12C146.2 11.772 146.287 11.5525 146.442 11.3859C146.598 11.2192 146.811 11.1179 147.039 11.1024C147.266 11.0868 147.491 11.1582 147.668 11.3021C147.845 11.446 147.961 11.6517 147.992 11.8776L148 12V18.3C148 19.0764 148.59 19.716 149.346 19.7928L149.5 19.8H158.5C158.871 19.7999 159.229 19.6622 159.505 19.4135C159.78 19.1648 159.954 18.8228 159.992 18.4536L160 18.3V12C160 11.7613 160.095 11.5324 160.264 11.3636C160.432 11.1948 160.661 11.1 160.9 11.1ZM148.272 7.75441L153.364 2.66401C153.516 2.51159 153.718 2.41891 153.933 2.40284C154.148 2.38676 154.362 2.44835 154.535 2.57641L154.636 2.66401L159.728 7.75441C159.891 7.91454 159.987 8.13073 159.996 8.35909C160.006 8.58746 159.928 8.81089 159.779 8.98405C159.63 9.15721 159.42 9.26712 159.193 9.29148C158.966 9.31584 158.738 9.25282 158.555 9.11521L158.454 9.02761L154.9 5.47201V14.7C154.9 14.9175 154.821 15.1276 154.678 15.2915C154.535 15.4554 154.338 15.562 154.122 15.5916L154 15.6C153.783 15.6 153.572 15.5212 153.408 15.3783C153.245 15.2353 153.138 15.0379 153.108 14.8224L153.1 14.7V5.47201L149.546 9.02761C149.393 9.18034 149.191 9.27322 148.976 9.28929C148.76 9.30537 148.547 9.24359 148.373 9.11521L148.272 9.02761C148.12 8.87515 148.027 8.67289 148.011 8.45769C147.995 8.24249 148.056 8.02867 148.185 7.85521L148.272 7.75441L153.364 2.66401L148.272 7.75441Z" fill="#262B35"/>
</svg>
