<svg width="20" height="19" viewBox="0 0 20 19" fill="none" xmlns="http://www.w3.org/2000/svg">
<path d="M9.98888 1.25379L12.4753 6.64431L12.5984 6.91123L12.8903 6.94584L18.7853 7.64479L14.427 11.6753L14.2112 11.8748L14.2685 12.1632L15.4254 17.9856L10.2454 15.0861L9.98888 14.9425L9.73238 15.0861L4.55237 17.9856L5.70929 12.1632L5.76658 11.8748L5.55076 11.6753L1.19242 7.64479L7.08745 6.94584L7.37935 6.91123L7.50248 6.64431L9.98888 1.25379Z" stroke="#75839D"/>
</svg>
